init_robot_delivery,human_state,prioritize_charge,battery,battery_charging,robot_complete,workload_subtract,battery_threshold,work_load,full_high,inventory,full_high_battery,robot_delivery,charging,full,robot_state,increment_robot_delivery,human_workstation,workload_add,complete_transfer_amount,robot_action,human_complete,battery_charge_deduct
10,work,FALSE,70,1,0,1,50,5,20,0,500,10,FALSE,10,0,10,3,9,0,right,0,1
10,work,FALSE,69,1,0,1,50,4,20,0,500,10,FALSE,10,1,10,3,9,0,right,1,1
10,work,FALSE,68,1,0,1,50,3,20,0,500,10,FALSE,10,2,10,3,9,0,right,2,1
10,refill,FALSE,67,1,0,1,50,12,20,0,500,1,FALSE,10,3,10,3,9,2,left,2,1
10,work,FALSE,66,1,2,1,50,11,20,0,500,1,FALSE,10,2,10,3,9,0,right,1,1
10,refill,FALSE,65,1,2,1,50,12,20,0,500,0,FALSE,10,3,10,3,9,1,left,1,1
10,work,FALSE,64,1,3,1,50,11,20,0,500,0,FALSE,10,2,10,3,9,0,right,1,1
10,refill,FALSE,63,1,3,1,50,11,20,0,500,0,FALSE,10,3,10,3,9,1,left,1,1
10,work,FALSE,62,1,4,1,50,10,20,0,500,0,FALSE,10,2,10,3,9,0,right,1,1
10,refill,FALSE,61,1,4,1,50,10,20,0,500,0,FALSE,10,3,10,3,9,1,left,1,1
10,work,FALSE,60,1,5,1,50,9,20,0,500,0,FALSE,10,2,10,3,9,0,right,1,1
10,refill,FALSE,59,1,5,1,50,9,20,0,500,0,FALSE,10,3,10,3,9,1,left,1,1
10,work,FALSE,58,1,6,1,50,8,20,0,500,0,FALSE,10,2,10,3,9,0,left,1,1
10,work,FALSE,57,1,6,1,50,7,20,0,500,0,FALSE,10,1,10,3,9,0,left,2,1
10,work,FALSE,58,1,6,1,50,6,20,0,500,0,TRUE,10,0,10,3,9,0,right,3,1
10,work,FALSE,57,1,0,1,50,5,20,0,500,10,FALSE,10,1,10,3,9,0,stay,4,1
10,work,FALSE,56,1,0,1,50,4,20,0,500,10,FALSE,10,1,10,3,9,0,stay,5,1
10,work,FALSE,55,1,0,1,50,3,20,0,500,10,FALSE,10,1,10,3,9,0,right,6,1
10,work,FALSE,54,1,0,1,50,2,20,0,500,10,FALSE,10,2,10,3,9,0,right,7,1
10,refill,TRUE,53,1,0,1,50,11,20,0,500,1,FALSE,10,3,10,3,9,7,left,7,1
10,work,TRUE,52,1,7,1,50,10,20,0,500,1,FALSE,10,2,10,3,9,0,left,1,1
10,work,TRUE,51,1,7,1,50,9,20,0,500,1,FALSE,10,1,10,3,9,0,left,2,1
10,work,FALSE,52,1,7,1,50,8,20,0,500,1,TRUE,10,0,10,3,9,0,stay,3,1
10,work,FALSE,53,1,0,1,50,7,20,0,500,10,TRUE,10,0,10,3,9,0,stay,4,1
10,work,FALSE,54,1,0,1,50,6,20,0,500,10,TRUE,10,0,10,3,9,0,stay,5,1
10,work,FALSE,55,1,0,1,50,5,20,0,500,10,TRUE,10,0,10,3,9,0,right,6,1
10,work,FALSE,54,1,0,1,50,4,20,0,500,10,FALSE,10,1,10,3,9,0,right,7,1
10,work,FALSE,53,1,0,1,50,3,20,0,500,10,FALSE,10,2,10,3,9,0,right,8,1
10,refill,TRUE,52,1,0,1,50,12,20,0,500,1,FALSE,10,3,10,3,9,8,left,8,1
10,work,TRUE,51,1,8,1,50,11,20,0,500,1,FALSE,10,2,10,3,9,0,left,1,1
10,work,TRUE,50,1,8,1,50,10,20,0,500,1,FALSE,10,1,10,3,9,0,left,2,1
10,work,FALSE,51,1,8,1,50,9,20,0,500,1,TRUE,10,0,10,3,9,0,stay,3,1
10,work,FALSE,52,1,0,1,50,8,20,0,500,10,TRUE,10,0,10,3,9,0,stay,4,1
10,work,FALSE,53,1,0,1,50,7,20,0,500,10,TRUE,10,0,10,3,9,0,stay,5,1
10,work,FALSE,54,1,0,1,50,6,20,0,500,10,TRUE,10,0,10,3,9,0,stay,6,1
10,work,FALSE,55,1,0,1,50,5,20,0,500,10,TRUE,10,0,10,3,9,0,right,7,1
10,work,FALSE,54,1,0,1,50,4,20,0,500,10,FALSE,10,1,10,3,9,0,right,8,1
10,work,FALSE,53,1,0,1,50,3,20,0,500,10,FALSE,10,2,10,3,9,0,right,9,1
10,refill,TRUE,52,1,0,1,50,12,20,0,500,1,FALSE,10,3,10,3,9,9,left,9,1
10,work,TRUE,51,1,9,1,50,11,20,0,500,1,FALSE,10,2,10,3,9,0,left,1,1
10,work,TRUE,50,1,9,1,50,10,20,0,500,1,FALSE,10,1,10,3,9,0,left,2,1
10,work,FALSE,51,1,9,1,50,9,20,0,500,1,TRUE,10,0,10,3,9,0,stay,3,1
10,work,FALSE,52,1,0,1,50,8,20,0,500,10,TRUE,10,0,10,3,9,0,stay,4,1
10,work,FALSE,53,1,0,1,50,7,20,0,500,10,TRUE,10,0,10,3,9,0,stay,5,1
10,work,FALSE,54,1,0,1,50,6,20,0,500,10,TRUE,10,0,10,3,9,0,stay,6,1
10,work,FALSE,55,1,0,1,50,5,20,0,500,10,TRUE,10,0,10,3,9,0,right,7,1
10,work,FALSE,54,1,0,1,50,4,20,0,500,10,FALSE,10,1,10,3,9,0,right,8,1
10,work,FALSE,53,1,0,1,50,3,20,0,500,10,FALSE,10,2,10,3,9,0,right,9,1
10,refill,TRUE,52,1,0,1,50,12,20,0,500,1,FALSE,10,3,10,3,9,9,left,9,1
10,work,TRUE,51,1,9,1,50,11,20,0,500,1,FALSE,10,2,10,3,9,0,left,1,1
